Design Route Status
                                               :      # nets :
   ------------------------------------------- : ----------- :
   # of logical nets.......................... :       21864 :
       # of nets not needing routing.......... :        7127 :
           # of internally routed nets........ :        6268 :
           # of nets with no loads............ :         859 :
       # of routable nets..................... :       14737 :
           # of fully routed nets............. :       14737 :
       # of nets with routing errors.......... :           0 :
   ------------------------------------------- : ----------- :

