Copyright 1986-2020 Xilinx, Inc. All Rights Reserved.
----------------------------------------------------------------------------------------
| Tool Version : Vivado v.2020.1 (win64) Build 2902540 Wed May 27 19:54:49 MDT 2020
| Date         : Mon Dec 14 18:24:28 2020
| Host         : LAPTOP-PB1FB7I2 running 64-bit major release  (build 9200)
| Command      : report_control_sets -verbose -file top_wrapper_control_sets_placed.rpt
| Design       : top_wrapper
| Device       : xcku040
----------------------------------------------------------------------------------------

Control Set Information

Table of Contents
-----------------
1. Summary
2. Histogram
3. Flip-Flop Distribution
4. Detailed Control Set Information

1. Summary
----------

+----------------------------------------------------------+-------+
|                          Status                          | Count |
+----------------------------------------------------------+-------+
| Total control sets                                       |   143 |
|    Minimum number of control sets                        |   143 |
|    Addition due to synthesis replication                 |     0 |
|    Addition due to physical synthesis replication        |     0 |
| Unused register locations in slices containing registers |   142 |
+----------------------------------------------------------+-------+
* Control sets can be merged at opt_design using control_set_merge or merge_equivalent_drivers
** Run report_qor_suggestions for automated merging and remapping suggestions


2. Histogram
------------

+--------------------+-------+
|       Fanout       | Count |
+--------------------+-------+
| Total control sets |   143 |
| >= 0 to < 4        |    35 |
| >= 4 to < 6        |    19 |
| >= 6 to < 8        |     7 |
| >= 8 to < 10       |    10 |
| >= 10 to < 12      |     4 |
| >= 12 to < 14      |     6 |
| >= 14 to < 16      |     0 |
| >= 16              |    62 |
+--------------------+-------+
* Control sets can be remapped at either synth_design or opt_design


3. Flip-Flop Distribution
-------------------------

+--------------+-----------------------+------------------------+-----------------+--------------+
| Clock Enable | Synchronous Set/Reset | Asynchronous Set/Reset | Total Registers | Total Slices |
+--------------+-----------------------+------------------------+-----------------+--------------+
| No           | No                    | No                     |            1561 |          351 |
| No           | No                    | Yes                    |             127 |           32 |
| No           | Yes                   | No                     |             690 |          271 |
| Yes          | No                    | No                     |             600 |          165 |
| Yes          | No                    | Yes                    |              84 |           19 |
| Yes          | Yes                   | No                     |             388 |           77 |
+--------------+-----------------------+------------------------+-----------------+--------------+


4. Detailed Control Set Information
-----------------------------------

+-----------------------------------------+----------------------------------------------------------------------------------------------------------------------------------------------------------------------------------------------------------------------------------------------------------+-----------------------------------------------------------------------------------------------------------------------------------------------------------------------------------------------------------------------------------------+------------------+----------------+--------------+
|               Clock Signal              |                                                                                                                       Enable Signal                                                                                                                      |                                                                                                             Set/Reset Signal                                                                                                            | Slice Load Count | Bel Load Count | Bels / Slice |
+-----------------------------------------+----------------------------------------------------------------------------------------------------------------------------------------------------------------------------------------------------------------------------------------------------------+-----------------------------------------------------------------------------------------------------------------------------------------------------------------------------------------------------------------------------------------+------------------+----------------+--------------+
|  dbg_hub/inst/BSCANID.u_xsdbm_id/itck_i |                                                                                                                                                                                                                                                          | dbg_hub/inst/BSCANID.u_xsdbm_id/CORE_XSDB.UUT_MASTER/U_ICON_INTERFACE/U_CMD6_RD/U_RD_FIFO/SUBCORE_FIFO.xsdbm_v3_0_0_rdfifo_inst/inst_fifo_gen/gconvfifo.rf/grf.rf/rstblk/rst_rd_reg2                                                    |                1 |              1 |         1.00 |
|  dbg_hub/inst/BSCANID.u_xsdbm_id/itck_i |                                                                                                                                                                                                                                                          | dbg_hub/inst/BSCANID.u_xsdbm_id/SWITCH_N_EXT_BSCAN.bscan_inst/s_bscan_reset                                                                                                                                                             |                1 |              1 |         1.00 |
|  cw/inst/clk_out1                       | u_ila_0/inst/ila_core_inst/u_ila_cap_ctrl/u_cap_addrgen/u_cap_window_counter/U_WLCMPCE/wcnt_lcmp_ce                                                                                                                                                      | u_ila_0/inst/ila_core_inst/u_ila_cap_ctrl/u_cap_addrgen/U_CMPRESET/cmp_reset                                                                                                                                                            |                1 |              1 |         1.00 |
|  cw/inst/clk_out1                       | dut/core/c/dc/ccwrite                                                                                                                                                                                                                                    |                                                                                                                                                                                                                                         |                1 |              1 |         1.00 |
|  dbg_hub/inst/BSCANID.u_xsdbm_id/itck_i | dbg_hub/inst/BSCANID.u_xsdbm_id/SWITCH_N_EXT_BSCAN.bscan_switch/temp_curid[28]_i_1_n_0                                                                                                                                                                   |                                                                                                                                                                                                                                         |                1 |              1 |         1.00 |
|  dbg_hub/inst/BSCANID.u_xsdbm_id/itck_i |                                                                                                                                                                                                                                                          | dbg_hub/inst/BSCANID.u_xsdbm_id/CORE_XSDB.UUT_MASTER/U_ICON_INTERFACE/U_CMD6_WR/U_WR_FIFO/SUBCORE_FIFO.xsdbm_v3_0_0_wrfifo_inst/inst_fifo_gen/gconvfifo.rf/grf.rf/rstblk/rst_wr_reg2                                                    |                1 |              1 |         1.00 |
|  cw/inst/clk_out1                       |                                                                                                                                                                                                                                                          | dbg_hub/inst/BSCANID.u_xsdbm_id/CORE_XSDB.UUT_MASTER/U_ICON_INTERFACE/U_CMD6_WR/U_WR_FIFO/SUBCORE_FIFO.xsdbm_v3_0_0_wrfifo_inst/inst_fifo_gen/gconvfifo.rf/grf.rf/rstblk/rst_rd_reg2                                                    |                1 |              1 |         1.00 |
|  cw/inst/clk_out1                       |                                                                                                                                                                                                                                                          | dbg_hub/inst/BSCANID.u_xsdbm_id/CORE_XSDB.UUT_MASTER/U_XSDB_BUS_CONTROLLER/clr_rd_req                                                                                                                                                   |                1 |              1 |         1.00 |
|  cw/inst/clk_out1                       |                                                                                                                                                                                                                                                          | dbg_hub/inst/BSCANID.u_xsdbm_id/CORE_XSDB.UUT_MASTER/U_XSDB_BUS_CONTROLLER/clr_abort_rd                                                                                                                                                 |                1 |              1 |         1.00 |
|  cw/inst/clk_out1                       | u_ila_0/inst/ila_core_inst/u_ila_cap_ctrl/u_cap_addrgen/u_cap_sample_counter/U_SCMPCE/scnt_cmp_ce                                                                                                                                                        | u_ila_0/inst/ila_core_inst/u_ila_cap_ctrl/u_cap_addrgen/U_CMPRESET/cmp_reset                                                                                                                                                            |                1 |              1 |         1.00 |
|  cw/inst/clk_out1                       |                                                                                                                                                                                                                                                          | dbg_hub/inst/BSCANID.u_xsdbm_id/CORE_XSDB.UUT_MASTER/U_ICON_INTERFACE/U_CMD6_RD/U_RD_FIFO/SUBCORE_FIFO.xsdbm_v3_0_0_rdfifo_inst/inst_fifo_gen/gconvfifo.rf/grf.rf/rstblk/rst_wr_reg2                                                    |                1 |              1 |         1.00 |
|  cw/inst/clk_out1                       | u_ila_0/inst/ila_core_inst/u_ila_cap_ctrl/u_cap_addrgen/u_cap_window_counter/U_WHCMPCE/wcnt_hcmp_ce                                                                                                                                                      | u_ila_0/inst/ila_core_inst/u_ila_cap_ctrl/u_cap_addrgen/U_CMPRESET/cmp_reset                                                                                                                                                            |                1 |              1 |         1.00 |
|  dut/core/f/fpu/ccwd_reg_i_2_n_1        |                                                                                                                                                                                                                                                          |                                                                                                                                                                                                                                         |                1 |              1 |         1.00 |
|  cw/inst/clk_out1                       | dbg_hub/inst/BSCANID.u_xsdbm_id/CORE_XSDB.UUT_MASTER/U_ICON_INTERFACE/U_CMD1/ctl_reg[1]_i_1_n_0                                                                                                                                                          |                                                                                                                                                                                                                                         |                1 |              2 |         2.00 |
|  cw/inst/clk_out1                       | dbg_hub/inst/BSCANID.u_xsdbm_id/CORE_XSDB.UUT_MASTER/U_XSDB_BUS_CONTROLLER/U_TIMER/in_normal_mode                                                                                                                                                        | dbg_hub/inst/BSCANID.u_xsdbm_id/CORE_XSDB.UUT_MASTER/U_ICON_INTERFACE/U_CMD1/ctl_reg[0]                                                                                                                                                 |                1 |              2 |         2.00 |
|  cw/inst/clk_out1                       |                                                                                                                                                                                                                                                          | dbg_hub/inst/BSCANID.u_xsdbm_id/CORE_XSDB.UUT_MASTER/U_ICON_INTERFACE/wrdata_rst                                                                                                                                                        |                1 |              2 |         2.00 |
|  cw/inst/clk_out1                       |                                                                                                                                                                                                                                                          | dbg_hub/inst/BSCANID.u_xsdbm_id/CORE_XSDB.UUT_MASTER/U_ICON_INTERFACE/rddata_rst                                                                                                                                                        |                1 |              2 |         2.00 |
|  cw/inst/clk_out1                       |                                                                                                                                                                                                                                                          | u_ila_0/inst/ila_core_inst/u_ila_reset_ctrl/Q[2]                                                                                                                                                                                        |                1 |              2 |         2.00 |
|  dbg_hub/inst/BSCANID.u_xsdbm_id/itck_i | dbg_hub/inst/BSCANID.u_xsdbm_id/CORE_XSDB.UUT_MASTER/U_ICON_INTERFACE/U_CMD1/icn_cmd_en_temp                                                                                                                                                             |                                                                                                                                                                                                                                         |                1 |              2 |         2.00 |
|  cw/inst/clk_out1                       |                                                                                                                                                                                                                                                          | dbg_hub/inst/BSCANID.u_xsdbm_id/CORE_XSDB.UUT_MASTER/U_ICON_INTERFACE/U_CMD6_WR/U_WR_FIFO/SUBCORE_FIFO.xsdbm_v3_0_0_wrfifo_inst/inst_fifo_gen/gconvfifo.rf/grf.rf/rstblk/rd_rst_reg[2]                                                  |                2 |              2 |         1.00 |
|  cw/inst/clk_out1                       | u_ila_0/inst/ila_core_inst/u_ila_regs/xsdb_rden_ff8                                                                                                                                                                                                      | dbg_hub/inst/BSCANID.u_xsdbm_id/CORE_XSDB.UUT_MASTER/U_XSDB_BUS_CONTROLLER/sl_iport0_o[0]                                                                                                                                               |                1 |              2 |         2.00 |
|  dbg_hub/inst/BSCANID.u_xsdbm_id/itck_i | dbg_hub/inst/BSCANID.u_xsdbm_id/SWITCH_N_EXT_BSCAN.bscan_switch/id_state[1]_i_1_n_0                                                                                                                                                                      | dbg_hub/inst/BSCANID.u_xsdbm_id/SWITCH_N_EXT_BSCAN.bscan_inst/s_bscan_reset                                                                                                                                                             |                1 |              2 |         2.00 |
|  dbg_hub/inst/BSCANID.u_xsdbm_id/itck_i |                                                                                                                                                                                                                                                          | dbg_hub/inst/BSCANID.u_xsdbm_id/CORE_XSDB.UUT_MASTER/U_ICON_INTERFACE/wrdata_rst                                                                                                                                                        |                1 |              2 |         2.00 |
|  dbg_hub/inst/BSCANID.u_xsdbm_id/itck_i |                                                                                                                                                                                                                                                          | dbg_hub/inst/BSCANID.u_xsdbm_id/CORE_XSDB.UUT_MASTER/U_ICON_INTERFACE/rddata_rst                                                                                                                                                        |                1 |              2 |         2.00 |
|  cw/inst/clk_out1                       | dbg_hub/inst/BSCANID.u_xsdbm_id/CORE_XSDB.UUT_MASTER/U_ICON_INTERFACE/U_CMD7_STAT/stat_reg_ld_temp_1_reg_n_0                                                                                                                                             |                                                                                                                                                                                                                                         |                3 |              3 |         1.00 |
|  cw/inst/clk_out1                       | dbg_hub/inst/BSCANID.u_xsdbm_id/CORE_XSDB.UUT_MASTER/U_ICON_INTERFACE/U_CMD3/stat_reg_ld_temp_1_reg_n_0                                                                                                                                                  |                                                                                                                                                                                                                                         |                3 |              3 |         1.00 |
|  cw/inst/clk_out1                       | u_ila_0/inst/ila_core_inst/xsdb_memory_read_inst/D[0]                                                                                                                                                                                                    |                                                                                                                                                                                                                                         |                1 |              3 |         3.00 |
|  dbg_hub/inst/BSCANID.u_xsdbm_id/itck_i |                                                                                                                                                                                                                                                          | dbg_hub/inst/BSCANID.u_xsdbm_id/CORE_XSDB.UUT_MASTER/U_ICON_INTERFACE/U_CMD6_WR/U_WR_FIFO/SUBCORE_FIFO.xsdbm_v3_0_0_wrfifo_inst/inst_fifo_gen/gconvfifo.rf/grf.rf/rstblk/ngwrdrst.grst.g7serrst.gwrrd_rst_sync_stage[2].wrst_inst/AS[0] |                1 |              3 |         3.00 |
|  cw/inst/clk_out1                       |                                                                                                                                                                                                                                                          | dbg_hub/inst/BSCANID.u_xsdbm_id/CORE_XSDB.UUT_MASTER/U_ICON_INTERFACE/U_CMD6_RD/U_RD_FIFO/SUBCORE_FIFO.xsdbm_v3_0_0_rdfifo_inst/inst_fifo_gen/gconvfifo.rf/grf.rf/rstblk/ngwrdrst.grst.g7serrst.gwrrd_rst_sync_stage[2].wrst_inst/AS[0] |                1 |              3 |         3.00 |
|  cw/inst/clk_out1                       | dbg_hub/inst/BSCANID.u_xsdbm_id/CORE_XSDB.UUT_MASTER/U_ICON_INTERFACE/U_CMD7_CTL/ctl_reg[2]_i_1_n_0                                                                                                                                                      | dbg_hub/inst/BSCANID.u_xsdbm_id/CORE_XSDB.UUT_MASTER/U_ICON_INTERFACE/U_CMD1/ctl_reg[0]                                                                                                                                                 |                1 |              3 |         3.00 |
|  dbg_hub/inst/BSCANID.u_xsdbm_id/itck_i | dbg_hub/inst/BSCANID.u_xsdbm_id/CORE_XSDB.UUT_MASTER/U_ICON_INTERFACE/U_CMD3/icn_cmd_en_temp                                                                                                                                                             |                                                                                                                                                                                                                                         |                1 |              3 |         3.00 |
|  dbg_hub/inst/BSCANID.u_xsdbm_id/itck_i |                                                                                                                                                                                                                                                          | dbg_hub/inst/BSCANID.u_xsdbm_id/CORE_XSDB.UUT_MASTER/U_ICON_INTERFACE/U_CMD6_RD/U_RD_FIFO/SUBCORE_FIFO.xsdbm_v3_0_0_rdfifo_inst/inst_fifo_gen/gconvfifo.rf/grf.rf/rstblk/ngwrdrst.grst.g7serrst.gwrrd_rst_sync_stage[2].rrst_inst/AS[0] |                1 |              3 |         3.00 |
|  cw/inst/clk_out1                       |                                                                                                                                                                                                                                                          | dbg_hub/inst/BSCANID.u_xsdbm_id/CORE_XSDB.UUT_MASTER/U_ICON_INTERFACE/U_CMD6_WR/U_WR_FIFO/SUBCORE_FIFO.xsdbm_v3_0_0_wrfifo_inst/inst_fifo_gen/gconvfifo.rf/grf.rf/rstblk/ngwrdrst.grst.g7serrst.gwrrd_rst_sync_stage[2].rrst_inst/AS[0] |                1 |              3 |         3.00 |
|  dbg_hub/inst/BSCANID.u_xsdbm_id/itck_i | dbg_hub/inst/BSCANID.u_xsdbm_id/CORE_XSDB.UUT_MASTER/U_ICON_INTERFACE/U_CMD7_CTL/icn_cmd_en_temp                                                                                                                                                         | dbg_hub/inst/BSCANID.u_xsdbm_id/CORE_XSDB.UUT_MASTER/U_ICON_INTERFACE/U_CMD1/ctl_reg[0]                                                                                                                                                 |                1 |              3 |         3.00 |
|  dbg_hub/inst/BSCANID.u_xsdbm_id/itck_i | dbg_hub/inst/BSCANID.u_xsdbm_id/CORE_XSDB.UUT_MASTER/U_ICON_INTERFACE/U_CMD7_STAT/icn_cmd_en_temp                                                                                                                                                        |                                                                                                                                                                                                                                         |                1 |              3 |         3.00 |
|  dbg_hub/inst/BSCANID.u_xsdbm_id/itck_i |                                                                                                                                                                                                                                                          | dbg_hub/inst/BSCANID.u_xsdbm_id/CORE_XSDB.UUT_MASTER/U_ICON_INTERFACE/U_CMD5/SR[0]                                                                                                                                                      |                1 |              4 |         4.00 |
|  cw/inst/clk_out1                       |                                                                                                                                                                                                                                                          | u_ila_0/inst/ila_core_inst/u_ila_regs/MU_SRL[5].mu_srl_reg/cnt[3]_i_1__5_n_0                                                                                                                                                            |                1 |              4 |         4.00 |
|  dbg_hub/inst/BSCANID.u_xsdbm_id/itck_i |                                                                                                                                                                                                                                                          | dbg_hub/inst/BSCANID.u_xsdbm_id/CORE_XSDB.UUT_MASTER/U_ICON_INTERFACE/icn_cmd_en[3]_i_1_n_0                                                                                                                                             |                1 |              4 |         4.00 |
|  cw/inst/clk_out1                       |                                                                                                                                                                                                                                                          | u_ila_0/inst/ila_core_inst/u_ila_regs/MU_SRL[6].mu_srl_reg/cnt[3]_i_1__6_n_0                                                                                                                                                            |                1 |              4 |         4.00 |
|  dbg_hub/inst/BSCANID.u_xsdbm_id/itck_i |                                                                                                                                                                                                                                                          | dbg_hub/inst/BSCANID.u_xsdbm_id/CORE_XSDB.U_ICON/U_CMD/SYNC_reg                                                                                                                                                                         |                1 |              4 |         4.00 |
|  cw/inst/clk_out1                       |                                                                                                                                                                                                                                                          | u_ila_0/inst/ila_core_inst/u_ila_regs/TC_SRL[0].tc_srl_reg/cnt[3]_i_1__7_n_0                                                                                                                                                            |                1 |              4 |         4.00 |
|  cw/inst/clk_out1                       |                                                                                                                                                                                                                                                          | u_ila_0/inst/ila_core_inst/u_ila_regs/MU_SRL[2].mu_srl_reg/cnt[3]_i_1__2_n_0                                                                                                                                                            |                1 |              4 |         4.00 |
|  cw/inst/clk_out1                       |                                                                                                                                                                                                                                                          | u_ila_0/inst/ila_core_inst/u_ila_regs/MU_SRL[3].mu_srl_reg/cnt[3]_i_1__3_n_0                                                                                                                                                            |                1 |              4 |         4.00 |
|  cw/inst/clk_out1                       |                                                                                                                                                                                                                                                          | u_ila_0/inst/ila_core_inst/u_ila_regs/MU_SRL[4].mu_srl_reg/cnt[3]_i_1__4_n_0                                                                                                                                                            |                1 |              4 |         4.00 |
|  dbg_hub/inst/BSCANID.u_xsdbm_id/itck_i |                                                                                                                                                                                                                                                          | dbg_hub/inst/BSCANID.u_xsdbm_id/CORE_XSDB.UUT_MASTER/U_ICON_INTERFACE/U_CMD5/shift_reg_in_reg[17]_0[0]                                                                                                                                  |                1 |              4 |         4.00 |
|  cw/inst/clk_out1                       |                                                                                                                                                                                                                                                          | u_ila_0/inst/ila_core_inst/u_ila_regs/MU_SRL[1].mu_srl_reg/cnt[3]_i_1__1_n_0                                                                                                                                                            |                1 |              4 |         4.00 |
|  cw/inst/clk_out1                       |                                                                                                                                                                                                                                                          | u_ila_0/inst/ila_core_inst/u_ila_regs/MU_SRL[0].mu_srl_reg/cnt[3]_i_1__0_n_0                                                                                                                                                            |                1 |              4 |         4.00 |
|  dbg_hub/inst/BSCANID.u_xsdbm_id/itck_i | dbg_hub/inst/BSCANID.u_xsdbm_id/CORE_XSDB.UUT_MASTER/U_ICON_INTERFACE/U_CMD2/icn_cmd_en_temp                                                                                                                                                             |                                                                                                                                                                                                                                         |                3 |              4 |         1.33 |
|  cw/inst/clk_out1                       | dbg_hub/inst/BSCANID.u_xsdbm_id/CORE_XSDB.UUT_MASTER/U_ICON_INTERFACE/U_CMD2/stat_reg_ld_temp_1                                                                                                                                                          |                                                                                                                                                                                                                                         |                4 |              4 |         1.00 |
|  cw/inst/clk_out1                       | u_ila_0/inst/ila_core_inst/xsdb_memory_read_inst/curr_read_block0                                                                                                                                                                                        | u_ila_0/inst/ila_core_inst/xsdb_memory_read_inst/curr_read_block[3]_i_1_n_0                                                                                                                                                             |                1 |              4 |         4.00 |
|  cw/inst/clk_out1                       | u_ila_0/inst/ila_core_inst/u_ila_regs/p_2_in                                                                                                                                                                                                             | u_ila_0/inst/ila_core_inst/u_ila_regs/drdyCount[5]_i_1_n_0                                                                                                                                                                              |                2 |              4 |         2.00 |
|  cw/inst/clk_out1                       | dut/core/uu/u2/status[3]_i_1_n_1                                                                                                                                                                                                                         | cw/inst/locked                                                                                                                                                                                                                          |                2 |              4 |         2.00 |
|  cw/inst/clk_out1                       |                                                                                                                                                                                                                                                          | u_ila_0/inst/ila_core_inst/u_ila_regs/reg_srl_fff/clear                                                                                                                                                                                 |                1 |              4 |         4.00 |
|  cw/inst/clk_out1                       | dut/core/uu/u1/txd0                                                                                                                                                                                                                                      | cw/inst/locked                                                                                                                                                                                                                          |                2 |              5 |         2.50 |
|  dbg_hub/inst/BSCANID.u_xsdbm_id/itck_i |                                                                                                                                                                                                                                                          | dbg_hub/inst/BSCANID.u_xsdbm_id/CORE_XSDB.U_ICON/U_CMD/SR[0]                                                                                                                                                                            |                1 |              6 |         6.00 |
|  dbg_hub/inst/BSCANID.u_xsdbm_id/itck_i | dbg_hub/inst/BSCANID.u_xsdbm_id/SWITCH_N_EXT_BSCAN.bscan_inst/s_bscan_sel                                                                                                                                                                                | dbg_hub/inst/BSCANID.u_xsdbm_id/SWITCH_N_EXT_BSCAN.bscan_inst/s_bscan_reset                                                                                                                                                             |                2 |              6 |         3.00 |
|  cw/inst/clk_out1                       |                                                                                                                                                                                                                                                          | u_ila_0/inst/ila_core_inst/u_ila_reset_ctrl/reset_out0_n_0                                                                                                                                                                              |                2 |              6 |         3.00 |
|  dbg_hub/inst/BSCANID.u_xsdbm_id/itck_i |                                                                                                                                                                                                                                                          | dbg_hub/inst/BSCANID.u_xsdbm_id/CORE_XSDB.UUT_MASTER/U_ICON_INTERFACE/icn_cmd_en_reg_n_0_[0]                                                                                                                                            |                2 |              7 |         3.50 |
|  cw/inst/clk_out1                       | u_ila_0/inst/ila_core_inst/u_ila_regs/drdy_ffa_i_1_n_0                                                                                                                                                                                                   | u_ila_0/inst/ila_core_inst/u_ila_regs/count1[6]_i_1_n_0                                                                                                                                                                                 |                2 |              7 |         3.50 |
|  cw/inst/clk_out1                       | u_ila_0/inst/ila_core_inst/u_ila_regs/sel                                                                                                                                                                                                                | u_ila_0/inst/ila_core_inst/u_ila_regs/count0[6]_i_1_n_0                                                                                                                                                                                 |                2 |              7 |         3.50 |
|  cw/inst/clk_out1                       |                                                                                                                                                                                                                                                          | u_ila_0/inst/ila_core_inst/u_ila_regs/reg_15/I_EN_CTL_EQ1.U_CTL/SR[0]                                                                                                                                                                   |                2 |              7 |         3.50 |
|  dbg_hub/inst/BSCANID.u_xsdbm_id/itck_i |                                                                                                                                                                                                                                                          | dbg_hub/inst/BSCANID.u_xsdbm_id/CORE_XSDB.U_ICON/iDATA_CMD                                                                                                                                                                              |                1 |              8 |         8.00 |
|  dbg_hub/inst/BSCANID.u_xsdbm_id/itck_i |                                                                                                                                                                                                                                                          | dbg_hub/inst/BSCANID.u_xsdbm_id/SWITCH_N_EXT_BSCAN.bscan_switch/counter[7]_i_1_n_0                                                                                                                                                      |                2 |              8 |         4.00 |
|  cw/inst/clk_out1                       | dbg_hub/inst/BSCANID.u_xsdbm_id/CORE_XSDB.UUT_MASTER/U_ICON_INTERFACE/U_CMD6_WR/U_WR_FIFO/SUBCORE_FIFO.xsdbm_v3_0_0_wrfifo_inst/inst_fifo_gen/gconvfifo.rf/grf.rf/gntv_or_sync_fifo.gl0.rd/gras.rsts/E[0]                                                | dbg_hub/inst/BSCANID.u_xsdbm_id/CORE_XSDB.UUT_MASTER/U_ICON_INTERFACE/U_CMD6_WR/U_WR_FIFO/SUBCORE_FIFO.xsdbm_v3_0_0_wrfifo_inst/inst_fifo_gen/gconvfifo.rf/grf.rf/rstblk/rd_rst_reg[2]                                                  |                2 |              8 |         4.00 |
|  dbg_hub/inst/BSCANID.u_xsdbm_id/itck_i | dbg_hub/inst/BSCANID.u_xsdbm_id/CORE_XSDB.UUT_MASTER/U_ICON_INTERFACE/U_CMD6_RD/U_RD_FIFO/SUBCORE_FIFO.xsdbm_v3_0_0_rdfifo_inst/inst_fifo_gen/gconvfifo.rf/grf.rf/gntv_or_sync_fifo.gl0.rd/gr1.gr1_int.rfwft/E[0]                                        | dbg_hub/inst/BSCANID.u_xsdbm_id/CORE_XSDB.UUT_MASTER/U_ICON_INTERFACE/U_CMD6_RD/U_RD_FIFO/SUBCORE_FIFO.xsdbm_v3_0_0_rdfifo_inst/inst_fifo_gen/gconvfifo.rf/grf.rf/rstblk/rd_rst_reg[2]                                                  |                2 |              8 |         4.00 |
|  cw/inst/clk_out1                       |                                                                                                                                                                                                                                                          | dbg_hub/inst/BSCANID.u_xsdbm_id/CORE_XSDB.UUT_MASTER/U_XSDB_BUS_CONTROLLER/timer_rst                                                                                                                                                    |                2 |              8 |         4.00 |
|  cw/inst/clk_out1                       | dut/core/uu/wd[7]_i_1_n_1                                                                                                                                                                                                                                |                                                                                                                                                                                                                                         |                4 |              8 |         2.00 |
|  cw/inst/clk_out1                       | dut/core/uu/u2/p_0_in__0                                                                                                                                                                                                                                 | cw/inst/locked                                                                                                                                                                                                                          |                3 |              8 |         2.67 |
|  cw/inst/clk_out1                       | dut/core/uu/u1/txbuf                                                                                                                                                                                                                                     | cw/inst/locked                                                                                                                                                                                                                          |                4 |              8 |         2.00 |
|  cw/inst/clk_out1                       | u_ila_0/inst/ila_core_inst/u_ila_regs/clk_lost_cnt_reg[8]                                                                                                                                                                                                | u_ila_0/inst/ila_core_inst/u_ila_regs/clk_lost_cnt[7]_i_1_n_0                                                                                                                                                                           |                2 |              9 |         4.50 |
|  cw/inst/clk_out1                       |                                                                                                                                                                                                                                                          | u_ila_0/inst/ila_core_inst/u_ila_regs/U_XSDB_SLAVE/s_di_o[15]                                                                                                                                                                           |                9 |              9 |         1.00 |
|  cw/inst/clk_out1                       |                                                                                                                                                                                                                                                          | u_ila_0/inst/ila_core_inst/u_ila_regs/slaveRegDo_mux_2[15]_i_1_n_0                                                                                                                                                                      |                4 |             10 |         2.50 |
|  dbg_hub/inst/BSCANID.u_xsdbm_id/itck_i |                                                                                                                                                                                                                                                          | dbg_hub/inst/BSCANID.u_xsdbm_id/CORE_XSDB.UUT_MASTER/U_ICON_INTERFACE/U_CMD6_RD/U_RD_FIFO/SUBCORE_FIFO.xsdbm_v3_0_0_rdfifo_inst/inst_fifo_gen/gconvfifo.rf/grf.rf/rstblk/rd_rst_reg[2]                                                  |                1 |             10 |        10.00 |
|  dbg_hub/inst/BSCANID.u_xsdbm_id/itck_i | dbg_hub/inst/BSCANID.u_xsdbm_id/CORE_XSDB.U_ICON/U_CMD/iTARGET_CE                                                                                                                                                                                        | dbg_hub/inst/BSCANID.u_xsdbm_id/SWITCH_N_EXT_BSCAN.bscan_switch/m_bscan_sel[0]                                                                                                                                                          |                2 |             10 |         5.00 |
|  cw/inst/clk_out1                       |                                                                                                                                                                                                                                                          | u_ila_0/inst/ila_core_inst/u_ila_regs/slaveRegDo_mux_0[15]_i_1_n_0                                                                                                                                                                      |                8 |             11 |         1.38 |
|  dbg_hub/inst/BSCANID.u_xsdbm_id/itck_i | dbg_hub/inst/BSCANID.u_xsdbm_id/CORE_XSDB.UUT_MASTER/U_ICON_INTERFACE/U_CMD6_WR/U_WR_FIFO/SUBCORE_FIFO.xsdbm_v3_0_0_wrfifo_inst/inst_fifo_gen/gconvfifo.rf/grf.rf/gntv_or_sync_fifo.gl0.wr/gwas.wsts/E[0]                                                | dbg_hub/inst/BSCANID.u_xsdbm_id/CORE_XSDB.UUT_MASTER/U_ICON_INTERFACE/U_CMD6_WR/U_WR_FIFO/SUBCORE_FIFO.xsdbm_v3_0_0_wrfifo_inst/inst_fifo_gen/gconvfifo.rf/grf.rf/rstblk/wr_rst_reg[1]                                                  |                2 |             12 |         6.00 |
|  cw/inst/clk_out1                       | dbg_hub/inst/BSCANID.u_xsdbm_id/CORE_XSDB.UUT_MASTER/U_ICON_INTERFACE/U_CMD6_RD/U_RD_FIFO/SUBCORE_FIFO.xsdbm_v3_0_0_rdfifo_inst/inst_fifo_gen/gconvfifo.rf/grf.rf/gntv_or_sync_fifo.gl0.wr/gwas.wsts/E[0]                                                | dbg_hub/inst/BSCANID.u_xsdbm_id/CORE_XSDB.UUT_MASTER/U_ICON_INTERFACE/U_CMD6_RD/U_RD_FIFO/SUBCORE_FIFO.xsdbm_v3_0_0_rdfifo_inst/inst_fifo_gen/gconvfifo.rf/grf.rf/rstblk/wr_rst_reg[1]                                                  |                5 |             12 |         2.40 |
|  cw/inst/clk_out1                       | u_ila_0/inst/ila_core_inst/u_ila_cap_ctrl/u_cap_addrgen/u_cap_window_counter/U_WCE/E[0]                                                                                                                                                                  | u_ila_0/inst/ila_core_inst/u_ila_reset_ctrl/Q[0]                                                                                                                                                                                        |                3 |             13 |         4.33 |
|  cw/inst/clk_out1                       | u_ila_0/inst/ila_core_inst/u_ila_reset_ctrl/reset_out_reg[0]_0[0]                                                                                                                                                                                        |                                                                                                                                                                                                                                         |                3 |             13 |         4.33 |
|  cw/inst/clk_out1                       | u_ila_0/inst/ila_core_inst/u_ila_cap_ctrl/u_cap_addrgen/u_cap_sample_counter/U_SCE/E[0]                                                                                                                                                                  | u_ila_0/inst/ila_core_inst/u_ila_cap_ctrl/u_cap_addrgen/u_cap_sample_counter/U_SCRST/SR[0]                                                                                                                                              |                3 |             13 |         4.33 |
|  cw/inst/clk_out1                       |                                                                                                                                                                                                                                                          | dbg_hub/inst/BSCANID.u_xsdbm_id/CORE_XSDB.UUT_MASTER/U_XSDB_BUS_CONTROLLER/sl_iport0_o[0]                                                                                                                                               |                8 |             13 |         1.63 |
|  dbg_hub/inst/BSCANID.u_xsdbm_id/itck_i | dbg_hub/inst/BSCANID.u_xsdbm_id/CORE_XSDB.UUT_MASTER/U_ICON_INTERFACE/U_CMD6_RD/U_RD_FIFO/SUBCORE_FIFO.xsdbm_v3_0_0_rdfifo_inst/inst_fifo_gen/gconvfifo.rf/grf.rf/gntv_or_sync_fifo.gl0.rd/gr1.gr1_int.rfwft/ngwrdrst.grst.g7serrst.rd_rst_reg_reg[0][0] |                                                                                                                                                                                                                                         |                6 |             16 |         2.67 |
|  cw/inst/clk_out1                       | u_ila_0/inst/ila_core_inst/u_ila_regs/reg_80/I_EN_CTL_EQ1.U_CTL/xsdb_reg[15]_i_1__14_n_0                                                                                                                                                                 |                                                                                                                                                                                                                                         |               13 |             16 |         1.23 |
|  cw/inst/clk_out1                       | u_ila_0/inst/ila_core_inst/u_ila_regs/reg_85/I_EN_CTL_EQ1.U_CTL/xsdb_reg[15]_i_1__4_n_0                                                                                                                                                                  |                                                                                                                                                                                                                                         |                9 |             16 |         1.78 |
|  cw/inst/clk_out1                       | dbg_hub/inst/BSCANID.u_xsdbm_id/CORE_XSDB.UUT_MASTER/U_ICON_INTERFACE/U_CMD6_WR/U_WR_FIFO/SUBCORE_FIFO.xsdbm_v3_0_0_wrfifo_inst/inst_fifo_gen/gconvfifo.rf/grf.rf/gntv_or_sync_fifo.gl0.rd/gras.rsts/E[0]                                                |                                                                                                                                                                                                                                         |                4 |             16 |         4.00 |
|  cw/inst/clk_out1                       |                                                                                                                                                                                                                                                          | u_ila_0/inst/ila_core_inst/u_ila_regs/slaveRegDo_mux_3[15]_i_1_n_0                                                                                                                                                                      |               12 |             16 |         1.33 |
|  cw/inst/clk_out1                       | u_ila_0/inst/ila_core_inst/u_ila_regs/reg_stream_ffd/I_EN_CTL_EQ1.U_CTL/xsdb_reg[15]_i_1_n_0                                                                                                                                                             |                                                                                                                                                                                                                                         |               11 |             16 |         1.45 |
|  cw/inst/clk_out1                       | u_ila_0/inst/ila_core_inst/u_ila_regs/reg_84/I_EN_CTL_EQ1.U_CTL/xsdb_reg[15]_i_1__5_n_0                                                                                                                                                                  |                                                                                                                                                                                                                                         |               10 |             16 |         1.60 |
|  cw/inst/clk_out1                       | u_ila_0/inst/ila_core_inst/xsdb_memory_read_inst/E[0]                                                                                                                                                                                                    |                                                                                                                                                                                                                                         |               10 |             16 |         1.60 |
|  cw/inst/clk_out1                       | u_ila_0/inst/ila_core_inst/u_ila_regs/reg_82/I_EN_CTL_EQ1.U_CTL/xsdb_reg[15]_i_1__3_n_0                                                                                                                                                                  |                                                                                                                                                                                                                                         |               12 |             16 |         1.33 |
|  cw/inst/clk_out1                       | u_ila_0/inst/ila_core_inst/u_ila_regs/reg_83/I_EN_CTL_EQ1.U_CTL/xsdb_reg[15]_i_1__6_n_0                                                                                                                                                                  |                                                                                                                                                                                                                                         |               12 |             16 |         1.33 |
|  cw/inst/clk_out1                       | u_ila_0/inst/ila_core_inst/u_ila_regs/reg_19/I_EN_CTL_EQ1.U_CTL/xsdb_reg[15]_i_1__9_n_0                                                                                                                                                                  |                                                                                                                                                                                                                                         |               10 |             16 |         1.60 |
|  cw/inst/clk_out1                       | u_ila_0/inst/ila_core_inst/u_ila_regs/reg_1a/I_EN_CTL_EQ1.U_CTL/xsdb_reg[15]_i_1__7_n_0                                                                                                                                                                  |                                                                                                                                                                                                                                         |                9 |             16 |         1.78 |
|  cw/inst/clk_out1                       | u_ila_0/inst/ila_core_inst/u_ila_regs/reg_6/I_EN_CTL_EQ1.U_CTL/xsdb_reg[15]_i_1__12_n_0                                                                                                                                                                  |                                                                                                                                                                                                                                         |                7 |             16 |         2.29 |
|  cw/inst/clk_out1                       | u_ila_0/inst/ila_core_inst/u_ila_regs/U_XSDB_SLAVE/reg_test0                                                                                                                                                                                             |                                                                                                                                                                                                                                         |                8 |             16 |         2.00 |
|  cw/inst/clk_out1                       | u_ila_0/inst/ila_core_inst/u_ila_regs/reg_15/I_EN_CTL_EQ1.U_CTL/xsdb_reg[15]_i_1__10_n_0                                                                                                                                                                 |                                                                                                                                                                                                                                         |               11 |             16 |         1.45 |
|  cw/inst/clk_out1                       | u_ila_0/inst/ila_core_inst/u_ila_regs/reg_16/I_EN_CTL_EQ1.U_CTL/xsdb_reg[15]_i_1__1_n_0                                                                                                                                                                  |                                                                                                                                                                                                                                         |                8 |             16 |         2.00 |
|  cw/inst/clk_out1                       | u_ila_0/inst/ila_core_inst/u_ila_regs/reg_17/I_EN_CTL_EQ1.U_CTL/xsdb_reg[15]_i_1__0_n_0                                                                                                                                                                  |                                                                                                                                                                                                                                         |               11 |             16 |         1.45 |
|  cw/inst/clk_out1                       | u_ila_0/inst/ila_core_inst/u_ila_regs/reg_7/I_EN_CTL_EQ1.U_CTL/xsdb_reg[15]_i_1__13_n_0                                                                                                                                                                  |                                                                                                                                                                                                                                         |                9 |             16 |         1.78 |
|  dbg_hub/inst/BSCANID.u_xsdbm_id/itck_i |                                                                                                                                                                                                                                                          | dbg_hub/inst/BSCANID.u_xsdbm_id/CORE_XSDB.UUT_MASTER/U_ICON_INTERFACE/U_CMD6_RD/U_RD_FIFO/SUBCORE_FIFO.xsdbm_v3_0_0_rdfifo_inst/inst_fifo_gen/gconvfifo.rf/grf.rf/rstblk/rd_rst_reg[1]                                                  |                3 |             16 |         5.33 |
|  dbg_hub/inst/BSCANID.u_xsdbm_id/itck_i | dbg_hub/inst/BSCANID.u_xsdbm_id/CORE_XSDB.UUT_MASTER/U_ICON_INTERFACE/U_CMD5/E[0]                                                                                                                                                                        | dbg_hub/inst/BSCANID.u_xsdbm_id/CORE_XSDB.UUT_MASTER/U_ICON_INTERFACE/rddata_rst                                                                                                                                                        |                4 |             16 |         4.00 |
|  cw/inst/clk_out1                       | u_ila_0/inst/ila_core_inst/u_ila_regs/reg_18/I_EN_CTL_EQ1.U_CTL/xsdb_reg[15]_i_1__8_n_0                                                                                                                                                                  |                                                                                                                                                                                                                                         |                9 |             16 |         1.78 |
|  cw/inst/clk_out1                       | u_ila_0/inst/ila_core_inst/u_ila_regs/reg_81/I_EN_CTL_EQ1.U_CTL/xsdb_reg[15]_i_1__2_n_0                                                                                                                                                                  |                                                                                                                                                                                                                                         |               11 |             16 |         1.45 |
|  dbg_hub/inst/BSCANID.u_xsdbm_id/itck_i | dbg_hub/inst/BSCANID.u_xsdbm_id/CORE_XSDB.UUT_MASTER/U_ICON_INTERFACE/U_CMD5/icn_cmd_en_reg[6][0]                                                                                                                                                        | dbg_hub/inst/BSCANID.u_xsdbm_id/CORE_XSDB.UUT_MASTER/U_ICON_INTERFACE/wrdata_rst                                                                                                                                                        |                2 |             16 |         8.00 |
|  dbg_hub/inst/BSCANID.u_xsdbm_id/itck_i | dbg_hub/inst/BSCANID.u_xsdbm_id/CORE_XSDB.UUT_MASTER/U_ICON_INTERFACE/U_CMD6_RD/U_RD_FIFO/SUBCORE_FIFO.xsdbm_v3_0_0_rdfifo_inst/inst_fifo_gen/gconvfifo.rf/grf.rf/gntv_or_sync_fifo.gl0.rd/gr1.gr1_int.rfwft/E[0]                                        |                                                                                                                                                                                                                                         |                6 |             16 |         2.67 |
|  cw/inst/clk_out1                       |                                                                                                                                                                                                                                                          | dbg_hub/inst/BSCANID.u_xsdbm_id/CORE_XSDB.UUT_MASTER/U_ICON_INTERFACE/U_CMD6_WR/U_WR_FIFO/SUBCORE_FIFO.xsdbm_v3_0_0_wrfifo_inst/inst_fifo_gen/gconvfifo.rf/grf.rf/rstblk/rd_rst_reg[1]                                                  |                4 |             16 |         4.00 |
|  cw/inst/clk_out1                       | dbg_hub/inst/BSCANID.u_xsdbm_id/CORE_XSDB.UUT_MASTER/U_XSDB_BUS_CONTROLLER/inc_addr_r_reg_0                                                                                                                                                              | dbg_hub/inst/BSCANID.u_xsdbm_id/CORE_XSDB.UUT_MASTER/U_ICON_INTERFACE/U_CMD1/ctl_reg[0]                                                                                                                                                 |                3 |             17 |         5.67 |
|  cw/inst/clk_out1                       | dbg_hub/inst/BSCANID.u_xsdbm_id/CORE_XSDB.UUT_MASTER/U_XSDB_BUS_CONTROLLER/dec_wdc_r_reg_0                                                                                                                                                               | dbg_hub/inst/BSCANID.u_xsdbm_id/CORE_XSDB.UUT_MASTER/U_ICON_INTERFACE/U_CMD1/ctl_reg[0]                                                                                                                                                 |                3 |             17 |         5.67 |
|  dbg_hub/inst/BSCANID.u_xsdbm_id/itck_i |                                                                                                                                                                                                                                                          | dbg_hub/inst/BSCANID.u_xsdbm_id/CORE_XSDB.UUT_MASTER/U_ICON_INTERFACE/U_CMD6_WR/U_WR_FIFO/SUBCORE_FIFO.xsdbm_v3_0_0_wrfifo_inst/inst_fifo_gen/gconvfifo.rf/grf.rf/rstblk/wr_rst_reg[0]                                                  |                3 |             18 |         6.00 |
|  cw/inst/clk_out1                       |                                                                                                                                                                                                                                                          | dbg_hub/inst/BSCANID.u_xsdbm_id/CORE_XSDB.UUT_MASTER/U_ICON_INTERFACE/U_CMD6_RD/U_RD_FIFO/SUBCORE_FIFO.xsdbm_v3_0_0_rdfifo_inst/inst_fifo_gen/gconvfifo.rf/grf.rf/rstblk/wr_rst_reg[0]                                                  |                4 |             18 |         4.50 |
|  dbg_hub/inst/BSCANID.u_xsdbm_id/itck_i | dbg_hub/inst/BSCANID.u_xsdbm_id/CORE_XSDB.UUT_MASTER/U_ICON_INTERFACE/U_CMD5/icn_cmd_en_temp                                                                                                                                                             | dbg_hub/inst/BSCANID.u_xsdbm_id/CORE_XSDB.UUT_MASTER/U_ICON_INTERFACE/U_CMD1/ctl_reg[0]                                                                                                                                                 |                2 |             18 |         9.00 |
|  cw/inst/clk_out1                       | dbg_hub/inst/BSCANID.u_xsdbm_id/CORE_XSDB.UUT_MASTER/U_ICON_INTERFACE/U_CMD5/ctl_reg[17]_i_1_n_0                                                                                                                                                         | dbg_hub/inst/BSCANID.u_xsdbm_id/CORE_XSDB.UUT_MASTER/U_ICON_INTERFACE/U_CMD1/ctl_reg[0]                                                                                                                                                 |                3 |             18 |         6.00 |
|  cw/inst/clk_out1                       |                                                                                                                                                                                                                                                          | dbg_hub/inst/BSCANID.u_xsdbm_id/CORE_XSDB.UUT_MASTER/U_ICON_INTERFACE/U_CMD1/ctl_reg[0]                                                                                                                                                 |                9 |             25 |         2.78 |
|  cw/inst/clk_out1                       | u_ila_0/inst/ila_core_inst/u_ila_regs/TC_SRL[0].tc_srl_reg/E[0]                                                                                                                                                                                          |                                                                                                                                                                                                                                         |                9 |             25 |         2.78 |
|  dbg_hub/inst/BSCANID.u_xsdbm_id/itck_i | dbg_hub/inst/BSCANID.u_xsdbm_id/CORE_XSDB.UUT_MASTER/U_ICON_INTERFACE/U_CMD4/icn_cmd_en_temp                                                                                                                                                             | dbg_hub/inst/BSCANID.u_xsdbm_id/CORE_XSDB.UUT_MASTER/U_ICON_INTERFACE/U_CMD1/ctl_reg[0]                                                                                                                                                 |                2 |             28 |        14.00 |
|  cw/inst/clk_out1                       | dbg_hub/inst/BSCANID.u_xsdbm_id/CORE_XSDB.UUT_MASTER/U_ICON_INTERFACE/U_CMD4/ctl_reg[27]_i_1_n_0                                                                                                                                                         | dbg_hub/inst/BSCANID.u_xsdbm_id/CORE_XSDB.UUT_MASTER/U_ICON_INTERFACE/U_CMD1/ctl_reg[0]                                                                                                                                                 |                5 |             28 |         5.60 |
|  dbg_hub/inst/BSCANID.u_xsdbm_id/itck_i | dbg_hub/inst/BSCANID.u_xsdbm_id/SWITCH_N_EXT_BSCAN.bscan_switch/temp_curid[28]_i_1_n_0                                                                                                                                                                   | dbg_hub/inst/BSCANID.u_xsdbm_id/SWITCH_N_EXT_BSCAN.bscan_switch/temp_curid[31]_i_1_n_0                                                                                                                                                  |                7 |             31 |         4.43 |
|  cw/inst/clk_out1                       | dut/core/c/pcen                                                                                                                                                                                                                                          | cw/inst/locked                                                                                                                                                                                                                          |                9 |             32 |         3.56 |
|  cw/inst/clk_out1                       |                                                                                                                                                                                                                                                          | dut/core/uu/u2/counter[0]_i_1_n_1                                                                                                                                                                                                       |                4 |             32 |         8.00 |
|  dbg_hub/inst/BSCANID.u_xsdbm_id/itck_i |                                                                                                                                                                                                                                                          | dbg_hub/inst/BSCANID.u_xsdbm_id/SWITCH_N_EXT_BSCAN.bscan_switch/shiftreg[31]_i_1_n_0                                                                                                                                                    |                7 |             32 |         4.57 |
|  dbg_hub/inst/BSCANID.u_xsdbm_id/itck_i | dbg_hub/inst/BSCANID.u_xsdbm_id/SWITCH_N_EXT_BSCAN.bscan_switch/bscanid[31]_i_1_n_0                                                                                                                                                                      | dbg_hub/inst/BSCANID.u_xsdbm_id/SWITCH_N_EXT_BSCAN.bscan_inst/s_bscan_reset                                                                                                                                                             |                6 |             32 |         5.33 |
|  cw/inst/clk_out1                       | dut/core/uu/u1/sel                                                                                                                                                                                                                                       | dut/core/uu/u1/counter[0]_i_1_n_1                                                                                                                                                                                                       |                4 |             32 |         8.00 |
|  dbg_hub/inst/BSCANID.u_xsdbm_id/itck_i | dbg_hub/inst/BSCANID.u_xsdbm_id/CORE_XSDB.UUT_MASTER/U_ICON_INTERFACE/U_CMD6_WR/U_WR_FIFO/SUBCORE_FIFO.xsdbm_v3_0_0_wrfifo_inst/inst_fifo_gen/gconvfifo.rf/grf.rf/gntv_or_sync_fifo.gl0.wr/gwas.wsts/E[0]                                                |                                                                                                                                                                                                                                         |                2 |             32 |        16.00 |
|  cw/inst/clk_out1                       | dbg_hub/inst/BSCANID.u_xsdbm_id/CORE_XSDB.UUT_MASTER/U_ICON_INTERFACE/U_CMD6_RD/U_RD_FIFO/SUBCORE_FIFO.xsdbm_v3_0_0_rdfifo_inst/inst_fifo_gen/gconvfifo.rf/grf.rf/gntv_or_sync_fifo.gl0.wr/gwas.wsts/E[0]                                                |                                                                                                                                                                                                                                         |                2 |             32 |        16.00 |
|  dut/core/f/fpu/n_0_12_BUFG             |                                                                                                                                                                                                                                                          |                                                                                                                                                                                                                                         |               15 |             32 |         2.13 |
|  cw/inst/clk_out1                       | u_ila_0/inst/ila_core_inst/u_ila_regs/MU_SRL[1].mu_srl_reg/E[0]                                                                                                                                                                                          |                                                                                                                                                                                                                                         |               10 |             33 |         3.30 |
|  dbg_hub/inst/BSCANID.u_xsdbm_id/itck_i | dbg_hub/inst/BSCANID.u_xsdbm_id/SWITCH_N_EXT_BSCAN.id_state[1]_i_1_n_0                                                                                                                                                                                   | dbg_hub/inst/BSCANID.u_xsdbm_id/SWITCH_N_EXT_BSCAN.bscan_inst/s_bscan_reset                                                                                                                                                             |                7 |             34 |         4.86 |
|  cw/inst/clk_out1                       | u_ila_0/inst/ila_core_inst/xsdb_memory_read_inst/read_addr0                                                                                                                                                                                              |                                                                                                                                                                                                                                         |               11 |             34 |         3.09 |
|  cw/inst/clk_out1                       | u_ila_0/inst/ila_core_inst/u_ila_regs/U_XSDB_SLAVE/s_den_o                                                                                                                                                                                               |                                                                                                                                                                                                                                         |               24 |             37 |         1.54 |
|  cw/inst/clk_out1                       |                                                                                                                                                                                                                                                          | u_ila_0/inst/ila_core_inst/u_ila_reset_ctrl/Q[0]                                                                                                                                                                                        |               16 |             46 |         2.88 |
|  cw/inst/clk_out1                       | u_ila_0/inst/ila_core_inst/u_ila_regs/MU_SRL[0].mu_srl_reg/E[0]                                                                                                                                                                                          |                                                                                                                                                                                                                                         |                9 |             49 |         5.44 |
|  cw/inst/clk_out1                       | u_ila_0/inst/ila_core_inst/u_ila_regs/MU_SRL[5].mu_srl_reg/E[0]                                                                                                                                                                                          |                                                                                                                                                                                                                                         |               11 |             49 |         4.45 |
|  cw/inst/clk_out1                       | u_ila_0/inst/ila_core_inst/u_ila_regs/MU_SRL[6].mu_srl_reg/E[0]                                                                                                                                                                                          |                                                                                                                                                                                                                                         |               10 |             49 |         4.90 |
|  cw/inst/clk_out1                       | u_ila_0/inst/ila_core_inst/u_ila_regs/MU_SRL[2].mu_srl_reg/E[0]                                                                                                                                                                                          |                                                                                                                                                                                                                                         |               10 |             49 |         4.90 |
|  cw/inst/clk_out1                       | u_ila_0/inst/ila_core_inst/u_ila_regs/MU_SRL[3].mu_srl_reg/E[0]                                                                                                                                                                                          |                                                                                                                                                                                                                                         |               10 |             49 |         4.90 |
|  cw/inst/clk_out1                       | u_ila_0/inst/ila_core_inst/u_ila_regs/MU_SRL[4].mu_srl_reg/E[0]                                                                                                                                                                                          |                                                                                                                                                                                                                                         |               12 |             49 |         4.08 |
|  dbg_hub/inst/BSCANID.u_xsdbm_id/itck_i |                                                                                                                                                                                                                                                          |                                                                                                                                                                                                                                         |               23 |             63 |         2.74 |
|  cw/inst/clk_out1                       | dut/core/c/dc/regwrite                                                                                                                                                                                                                                   |                                                                                                                                                                                                                                         |                6 |             96 |        16.00 |
|  cw/inst/clk_out1                       | dut/core/c/dc/fregwrite                                                                                                                                                                                                                                  |                                                                                                                                                                                                                                         |                6 |             96 |        16.00 |
|  cw/inst/clk_out1                       | u_ila_0/inst/ila_core_inst/u_ila_regs/reg_srl_fff/E[0]                                                                                                                                                                                                   |                                                                                                                                                                                                                                         |               25 |            103 |         4.12 |
|  cw/inst/clk_out1                       |                                                                                                                                                                                                                                                          | u_ila_0/inst/ila_core_inst/use_probe_debug_circuit                                                                                                                                                                                      |               76 |            190 |         2.50 |
|  cw/inst/clk_out1                       |                                                                                                                                                                                                                                                          | cw/inst/locked                                                                                                                                                                                                                          |              109 |            222 |         2.04 |
|  cw/inst/clk_out1                       |                                                                                                                                                                                                                                                          |                                                                                                                                                                                                                                         |              322 |           1674 |         5.20 |
+-----------------------------------------+----------------------------------------------------------------------------------------------------------------------------------------------------------------------------------------------------------------------------------------------------------+-----------------------------------------------------------------------------------------------------------------------------------------------------------------------------------------------------------------------------------------+------------------+----------------+--------------+


