00100011101111010000000000010100
00001000000000000000000001101111
01000110000000000000000000000000
00000011111000001111100000001000
00100000000110000000000000000000
00000000010110001100100000100010
00010111001000000000000000000010
00100000000000100000000000000001
00001000000000000000000001111010
01000110000000110001000010000001
01000110000001000001000010000000
11100111101001000000000000000000
10101111101000100000000000001000
11100111101000100000000000010000
11100111101001010000000000011000
11100111101000010000000000100000
00000000000111111100000000100000
10101111101110000000000000101100
00100011101111010000000000110000
00001100000000000000000000000010
00100011101111011111111111010000
10001111101110000000000000101100
00000000000110001111100000100000
11000111101000010000000000100000
01000110000000010000000000000010
11000111101001010000000000011000
01000110000001010000000001000000
11000111101000000000000000010000
01000110000000000000000010000010
01000110000000010000100011000010
01000110000000110001000100000000
01000110000001000011000000111100
01000101000000010000000000000100
10001111101000100000000000001000
00100000010000101111111111111111
11000111101001000000000000000000
00001000000000000000000000000100
00100000000000100000000000000000
00001000000000000000000001111010
00100000000110000000000110010000
00000000010110001100100000101010
00010111001000000000000000000001
00000011111000001111100000001000
10101111101000100000000000000000
10101111101000110000000000000100
00000000000111111100000000100000
10101111101110000000000000001100
00100011101111010000000000010000
00001100000000000000000001111000
00100011101111011111111111110000
10001111101110000000000000001100
00000000000110001111100000100000
00000000000111111100000000100000
10101111101110000000000000001100
00100011101111010000000000010000
00001100000000000000000000000010
00100011101111011111111111110000
10001111101110000000000000001100
00000000000110001111100000100000
01000110000000010000000000000011
01000110000000010000000000000001
10001111101000100000000000000100
11100111101000000000000000001000
00000000000111111100000000100000
10101111101110000000000000010100
00100011101111010000000000011000
00001100000000000000000001111000
00100011101111011111111111101000
10001111101110000000000000010100
00000000000110001111100000100000
00000000000111111100000000100000
10101111101110000000000000010100
00100011101111010000000000011000
00001100000000000000000000000010
00100011101111011111111111101000
10001111101110000000000000010100
00000000000110001111100000100000
01000110000000010000000000000011
01000110000000010000000101000001
00100000000000100000001111101000
11000111101001000000000000001000
00000000000111111100000000100000
10101111101110000000000000010100
00100011101111010000000000011000
00001100000000000000000000000100
00100011101111011111111111101000
10001111101110000000000000010100
00000000000110001111100000100000
10001111101000100000000000000000
00100000010000100000000000000001
10001111101000110000000000000100
00001000000000000000000000100111
00100000000110000000000110010000
00000000010110001100100000101010
00010111001000000000000000000001
00000011111000001111100000001000
00100000000000110000000000000000
10101111101000100000000000000000
00000000000111111100000000100000
00000000000000111011000000100000
00000000000000100001100000100000
00000000000101100001000000100000
10101111101110000000000000000100
00100011101111010000000000001000
00001100000000000000000000100111
00100011101111011111111111111000
10001111101110000000000000000100
00000000000110001111100000100000
10001111101000100000000000000000
00100000010000100000000000000001
00001000000000000000000001011100
00100000000111010000000000000000
00100000000000100000000000000000
00000000000111111100000000100000
10101111101110000000000000000100
00100011101111010000000000001000
00001100000000000000000001011100
00100011101111011111111111111000
10001111101110000000000000000100
00000000000110001111100000100000
11100000000000100000000000000000
00000011111000001111100000001000
01101100000000100000000000000000
00000000000000101100001000000010
01101100000110000000000000000000
00000000000110001100001000000010
01101100000110000000000000000000
00000000000110001100001000000010
01101100000110000000000000000000
00000011111000001111100000001000
00001000000000000000000010000010
