00001000000000000000000000011001
00100000000110000000000000000000
00000011000000101100100000101010
00010111001000000000000000000010
00100000011000100000000000000001
00000011111000000000000000001000
00100000000110000000000000000000
00000011000000111100100000101010
00010111001000000000000000000011
00100000010000101111111111111111
00100000000000110000000000000001
00001000000000000000000000000001
00100000010001001111111111111111
00100000011000111111111111111111
10101111101001000000000000000000
00000000000111111100000000100000
10101111101110000000000000000100
00100011101111010000000000001000
00001100000000000000000000000001
00100011101111011111111111111000
10001111101110000000000000000100
00000000000000100001100000100000
00000000000110001111100000100000
10001111101000100000000000000000
00001000000000000000000000000001
00100000000111010000000000000000
01101000000000100000000000000000
01101000000000110000000000000000
00000000000111111100000000100000
10101111101110000000000000000100
00100011101111010000000000001000
00001100000000000000000000000001
00100011101111011111111111111000
10001111101110000000000000000100
00000000000110001111100000100000
00000000000111111100000000100000
10101111101110000000000000000100
00100011101111010000000000001000
00100011101111011111111111111000
10001111101110000000000000000100
00000000000110001111100000100000
00001000000000000000000000101001
