01000000000111000000000000000000
00111111010010010000111111011011
00111111110010010000111111011011
00111110111000000000000000000000
00111101011101011110011111000101
00111101101101111101011001101110
00111101111000111000111000111000
00111110000100100100100100100101
00111110010011001100110011001101
00111110101010101010101010101010
00111111010010010000111111011011
01000000000101101100101111100100
00111111110010010000111111011011
01000000010010010000111111011011
01000000110010010000111111011011
00111001010011010110010010110110
00111100000010001000011001100110
00111110001010101010101010101100
00111010101100111000000100000110
00111101001010101010011110001001
00111111100000000000000000000000
00111111000000000000000000000000
00000000000000000000000000000000
