# compile verilog/system verilog design source files
verilog xil_defaultlib  --include "../../../../../ipsources/clk_wiz" \
"../../../../../../fpu/fabs.v" \
"../../../../../../fpu/fadd.v" \
"../../../../../../fpu/fdiv.v" \
"../../../../../../fpu/finv.v" \
"../../../../../../fpu/finv_table.v" \
"../../../../../../fpu/fless.v" \
"../../../../../../fpu/fmul.v" \
"../../../../../../fpu/fmul_for_fdiv.v" \
"../../../../../../fpu/fsqrt.v" \
"../../../../../../fpu/fsqrt_table.v" \
"../../../../../../fpu/fsub.v" \
"../../../../../../fpu/ftoi.v" \
"../../../../../../fpu/itof.v" \

sv xil_defaultlib  --include "../../../../../ipsources/clk_wiz" \
"../../../../../controller.sv" \
"../../../../../data_mem.sv" \
"../../../../../funit.sv" \
"../../../../../instr_mem.sv" \
"../../../../../top.sv" \
"../../../../../uart_unit.sv" \
"../../../../../unit.sv" \
"../../../../../test_bench.sv" \

# compile glbl module
verilog xil_defaultlib "glbl.v"

# Do not sort compile order
nosort
